...................
----------------------------------------------------------------------
Ran 19 tests in 0.009s

OK
Name             Stmts   Miss Branch BrPart  Cover
--------------------------------------------------
TestCollatz.py      83      0      2      0   100%
--------------------------------------------------
TOTAL               83      0      2      0   100%
